…
#> $`Spring from the Four Seasons`
#> # A tibble: 7 x 4
#>    time channel event
#>   <dbl>   <int> <chr>
#> 1     0      NA Time~
#> 2     0      NA Key ~
#> 3     0      NA Sequ~
#> 4     0      NA Text~
#> 5  2880      NA Set ~
#> 6 99840      NA Time~
#> 7 99841      NA End ~
#> # ... with 1 more variable: params <mid_prms>
#> 
#> $Violin
#> # A tibble: 204 x 4
#>     time channel event                                                    params
#>    <dbl>   <int> <chr>                                                <mid_prms>
#>  1  2880       1 Program Change                                               40
#>  2  2880       1 Control Change: Reset All Controllers                         0
#>  3  2880       1 Control Change: Damper pedal on/off (~                        0
#>  4  2880       1 Control Change: Effects 1 Depth                              42
#>  5  2880       1 Control Change: Pan                                          38
#>  6  2880       1 Control Change: Channel Volume                              115
#>  7  2880      NA Sequence/Track Name                                      Violin
#>  8  2880       1 Note On                                  a4 (69), velocity:  84
#>  9  3743       1 Note Off                                 a4 (69), velocity:   0
#> 10  3840       1 Note On                                 c#5 (73), velocity: 105
#> # ... with 194 more rows
#> 
#> $Piano
#> # A tibble: 597 x 4
#>     time channel event                                                    params
#>    <dbl>   <int> <chr>                                                <mid_prms>
#>  1  2880       0 Program Change                                                0
#>  2  2880       0 Control Change: Reset All Controllers                         0
#>  3  2880       0 Control Change: Damper pedal on/off (S~                       0
#>  4  2880       0 Control Change: Effects 1 Depth                              48
#>  5  2880       0 Control Change: Pan                                          51
#>  6  2880       0 Control Change: Channel Volume                              100
#>  7  2880       0 Note On                                  a4 (69), velocity:  92
#>  8  2880       0 Control Change: Reset All Controllers                         0
#>  9  2880       0 Control Change: Damper pedal on/off (S~                       0
#> 10  2880       0 Control Change: Effects 1 Depth                              48
#> # ... with 587 more rows
…
